Bayesian Inference of Pendulum Parameters · DiffEqBayes.jl
…
@btime bayesian_result = stan_inference(prob1, :rk45, t, data, priors;
    sample_kwargs = Dict(:num_samples => 10_000), print_summary = false)

10000×4 DataFrame
   Row │ sigma1.1  sigma1.2  theta_1   theta_2 
       │ Float64   Float64   Float64   Float64 
───────┼───────────────────────────────────────
     1 │ 0.245942  0.218933  0.668009  2.68628
     2 │ 0.224031  0.334294  0.953301  2.7951
     3 │ 0.174312  0.21831   1.02858   2.41274
     4 │ 0.168007  0.229343  1.08155   2.43556
     5 │ 0.131098  0.25501   1.11603   2.34443
     6 │ 0.142014  0.208993  1.01417   2.46853
     7 │ 0.257919  0.186097  1.16991   2.4187
     8 │ 0.367374  0.350433  1.50158   2.06478
   ⋮   │    ⋮         ⋮         ⋮         ⋮
  9994 │ 0.213185  0.278107  1.23      2.25948
  9995 │ 0.250577  0.182962  0.755491  2.69749
  9996 │ 0.23524   0.177995  0.859231  2.64656
  9997 │ 0.287382  0.287127  1.16755   2.45809
  9998 │ 0.199462  0.259635  0.921007  3.03695
  9999 │ 0.20692   0.197278  0.93842   2.41613
 10000 │ 0.290445  0.18045   1.38166   2.46448
                              9985 rows omitted
…
