Bayesian Inference of ODE · DiffEqBayes.jl
…
2×10 Matrix{Float64}:
 2.79159   6.77611  0.966406  1.89932   …  4.35635   3.23451  1.01773
 0.257653  2.00929  1.90242   0.321673     0.318065  4.5681   0.889305
Inference Methods
Stan

using StanSample #required for using the Stan backend
bayesian_result_stan = stan_inference(prob1, :rk45, t, data, priors)

1000×3 DataFrame
  Row │ sigma1.1  sigma1.2  theta_1 
      │ Float64   Float64   Float64 
──────┼─────────────────────────────
    1 │ 0.17801   0.347383  1.50003
    2 │ 0.500389  0.261547  1.50297
    3 │ 0.138768  0.216295  1.49913
    4 │ 0.138768  0.216295  1.49913
    5 │ 0.173545  0.209145  1.5051
    6 │ 0.200652  0.256729  1.49771
    7 │ 0.231083  0.181335  1.49609
    8 │ 0.226768  0.175809  1.50277
  ⋮   │    ⋮         ⋮         ⋮
  994 │ 0.247955  0.234815  1.50321
  995 │ 0.222914  0.193909  1.49997
  996 │ 0.301089  0.305096  1.5009
  997 │ 0.302849  0.257532  1.49675
  998 │ 0.302931  0.258379  1.49085
  999 │ 0.279386  0.291584  1.49093
 1000 │ 0.288084  0.25203   1.50288
                    985 rows omitted
…
