Bayesian Inference of ODE · DiffEqBayes.jl
…
2×10 Matrix{Float64}:
 2.7752    6.76937  0.962997  1.8979   …  4.35316  3.25413  1.04712
 0.250245  2.00973  1.90896   0.31747     0.32149  4.55979  0.905685
Inference Methods
Stan

using StanSample #required for using the Stan backend
bayesian_result_stan = stan_inference(prob1, :rk45, t, data, priors)

1000×3 DataFrame
  Row │ sigma1.1  sigma1.2  theta_1 
      │ Float64   Float64   Float64 
──────┼─────────────────────────────
    1 │ 0.325445  0.227392  1.50776
    2 │ 0.272685  0.295252  1.50289
    3 │ 0.171984  0.201156  1.5045
    4 │ 0.171984  0.201156  1.5045
    5 │ 0.305768  0.28925   1.49564
    6 │ 0.226879  0.2106    1.50313
    7 │ 0.267993  0.273367  1.4935
    8 │ 0.212334  0.367141  1.50032
  ⋮   │    ⋮         ⋮         ⋮
  994 │ 0.283118  0.232546  1.49621
  995 │ 0.231955  0.257723  1.49795
  996 │ 0.293731  0.238898  1.505
  997 │ 0.217553  0.165812  1.50117
  998 │ 0.343947  0.435806  1.50536
  999 │ 0.299487  0.406141  1.49717
 1000 │ 0.205624  0.168844  1.4985
                    985 rows omitted
…
