Bayesian Inference of ODE · DiffEqBayes.jl
…
2×10 Matrix{Float64}:
 2.7698   6.79031  0.968326  1.89629   …  4.34678   3.24365  1.03488
 0.25117  2.01742  1.90299   0.324986     0.323131  4.526    0.914012
Inference Methods
Stan

using StanSample #required for using the Stan backend
bayesian_result_stan = stan_inference(prob1, :rk45, t, data, priors)

1000×3 DataFrame
  Row │ sigma1.1  sigma1.2  theta_1 
      │ Float64   Float64   Float64 
──────┼─────────────────────────────
    1 │ 0.404396  0.261675  1.49681
    2 │ 0.157518  0.276364  1.49369
    3 │ 0.167571  0.234169  1.49864
    4 │ 0.246018  0.136094  1.50399
    5 │ 0.236982  0.358169  1.50125
    6 │ 0.280707  0.276108  1.49707
    7 │ 0.233989  0.233057  1.50766
    8 │ 0.294582  0.22404   1.50351
  ⋮   │    ⋮         ⋮         ⋮
  994 │ 0.237781  0.234985  1.49912
  995 │ 0.327321  0.187888  1.50456
  996 │ 0.190561  0.206469  1.49724
  997 │ 0.196561  0.360127  1.49941
  998 │ 0.242124  0.292967  1.5023
  999 │ 0.353303  0.170276  1.50175
 1000 │ 0.351378  0.174484  1.50608
                    985 rows omitted
…
