Bayesian Inference of Pendulum Parameters · DiffEqBayes.jl
…
@btime bayesian_result = stan_inference(prob1, :rk45, t, data, priors;
    sample_kwargs = Dict(:num_samples => 10_000), print_summary = false)

10000×4 DataFrame
   Row │ sigma1.1  sigma1.2  theta_1   theta_2 
       │ Float64   Float64   Float64   Float64 
───────┼───────────────────────────────────────
     1 │ 0.210538  0.352596  0.671485  2.50503
     2 │ 0.294182  0.269505  1.20488   2.95323
     3 │ 0.196627  0.251829  0.94685   2.63143
     4 │ 0.523017  0.33237   0.846318  2.38671
     5 │ 0.480126  0.318186  0.758851  2.36137
     6 │ 0.190224  0.235665  1.21357   2.74148
     7 │ 0.249804  0.29099   1.20509   2.76114
     8 │ 0.238196  0.261848  1.11868   2.75677
   ⋮   │    ⋮         ⋮         ⋮         ⋮
  9994 │ 0.306558  0.379476  0.756442  2.69519
  9995 │ 0.214877  0.579589  0.796163  2.85197
  9996 │ 0.263479  0.244147  0.779273  2.9593
  9997 │ 0.265007  0.434969  0.64723   2.73203
  9998 │ 0.300709  0.182204  1.31833   2.60311
  9999 │ 0.253532  0.184513  1.14334   2.04194
 10000 │ 0.167599  0.178796  1.1334    2.65487
                              9985 rows omitted
…
