Bayesian Inference of Pendulum Parameters · DiffEqBayes.jl
…
@btime bayesian_result = stan_inference(prob1, :rk45, t, data, priors;
    sample_kwargs = Dict(:num_samples => 10_000), print_summary = false)

10000×4 DataFrame
   Row │ sigma1.1  sigma1.2  theta_1   theta_2 
       │ Float64   Float64   Float64   Float64 
───────┼───────────────────────────────────────
     1 │ 0.239148  0.254228  0.761136  2.70386
     2 │ 0.458776  0.398603  1.10496   2.19171
     3 │ 0.258106  0.170468  1.09973   2.36637
     4 │ 0.309875  0.528137  0.858744  2.87005
     5 │ 0.175735  0.435063  0.990625  3.38761
     6 │ 0.221032  0.281583  1.02744   3.19128
     7 │ 0.207761  0.233624  1.07032   3.23835
     8 │ 0.26112   0.369766  0.858143  2.55153
   ⋮   │    ⋮         ⋮         ⋮         ⋮
  9994 │ 0.27299   0.231682  0.845571  2.47423
  9995 │ 0.182528  0.241477  1.06557   2.55088
  9996 │ 0.240653  0.209998  1.12381   2.69044
  9997 │ 0.237271  0.25746   1.08381   2.53092
  9998 │ 0.234017  0.26433   0.923988  2.6127
  9999 │ 0.291013  0.176678  0.986102  2.58934
 10000 │ 0.208622  0.367705  1.10853   2.56542
                              9985 rows omitted
…
